P1OAC/simulation/qsim/P1OAC.msim.vcd
$comment
	File created using the following command:
		vcd file P1OAC.msim.vcd -direction
$end
$date
	Fri Sep 01 01:02:40 2023
$end
$version
	ModelSim Version 10.5b
$end
$timescale
	1ps
$end

$scope module p1oac_vhd_vec_tst $end
$var wire 1 ! A $end
$var wire 1 " B $end
$var wire 1 # C $end
$var wire 1 $ CLK $end
$var wire 1 % D $end
$var wire 1 & RESET $end

$scope module i1 $end
$var wire 1 ' gnd $end
$var wire 1 ( vcc $end
$var wire 1 ) unknown $end
$var wire 1 * devoe $end
$var wire 1 + devclrn $end
$var wire 1 , devpor $end
$var wire 1 - ww_devoe $end
$var wire 1 . ww_devclrn $end
$var wire 1 / ww_devpor $end
$var wire 1 0 ww_A $end
$var wire 1 1 ww_RESET $end
$var wire 1 2 ww_CLK $end
$var wire 1 3 ww_B $end
$var wire 1 4 ww_C $end
$var wire 1 5 ww_D $end
$var wire 1 6 \~QUARTUS_CREATED_ADC1~_CHSEL_bus\ [4] $end
$var wire 1 7 \~QUARTUS_CREATED_ADC1~_CHSEL_bus\ [3] $end
$var wire 1 8 \~QUARTUS_CREATED_ADC1~_CHSEL_bus\ [2] $end
$var wire 1 9 \~QUARTUS_CREATED_ADC1~_CHSEL_bus\ [1] $end
$var wire 1 : \~QUARTUS_CREATED_ADC1~_CHSEL_bus\ [0] $end
$var wire 1 ; \~QUARTUS_CREATED_ADC2~_CHSEL_bus\ [4] $end
$var wire 1 < \~QUARTUS_CREATED_ADC2~_CHSEL_bus\ [3] $end
$var wire 1 = \~QUARTUS_CREATED_ADC2~_CHSEL_bus\ [2] $end
$var wire 1 > \~QUARTUS_CREATED_ADC2~_CHSEL_bus\ [1] $end
$var wire 1 ? \~QUARTUS_CREATED_ADC2~_CHSEL_bus\ [0] $end
$var wire 1 @ \~QUARTUS_CREATED_GND~I_combout\ $end
$var wire 1 A \~QUARTUS_CREATED_UNVM~~busy\ $end
$var wire 1 B \~QUARTUS_CREATED_ADC1~~eoc\ $end
$var wire 1 C \~QUARTUS_CREATED_ADC2~~eoc\ $end
$var wire 1 D \A~output_o\ $end
$var wire 1 E \B~output_o\ $end
$var wire 1 F \C~output_o\ $end
$var wire 1 G \D~output_o\ $end
$var wire 1 H \CLK~input_o\ $end
$var wire 1 I \inst1|cuenta[0]~1_combout\ $end
$var wire 1 J \inst1|cuenta[0]~feeder_combout\ $end
$var wire 1 K \inst|26~0_combout\ $end
$var wire 1 L \RESET~input_o\ $end
$var wire 1 M \inst|26~q\ $end
$var wire 1 N \inst|5~combout\ $end
$var wire 1 O \inst|25~0_combout\ $end
$var wire 1 P \inst|25~q\ $end
$var wire 1 Q \inst|51~combout\ $end
$var wire 1 R \inst|24~0_combout\ $end
$var wire 1 S \inst|24~q\ $end
$var wire 1 T \inst|21~combout\ $end
$var wire 1 U \inst|23~0_combout\ $end
$var wire 1 V \inst|23~q\ $end
$var wire 1 W \inst1|cuenta\ [27] $end
$var wire 1 X \inst1|cuenta\ [26] $end
$var wire 1 Y \inst1|cuenta\ [25] $end
$var wire 1 Z \inst1|cuenta\ [24] $end
$var wire 1 [ \inst1|cuenta\ [23] $end
$var wire 1 \ \inst1|cuenta\ [22] $end
$var wire 1 ] \inst1|cuenta\ [21] $end
$var wire 1 ^ \inst1|cuenta\ [20] $end
$var wire 1 _ \inst1|cuenta\ [19] $end
$var wire 1 ` \inst1|cuenta\ [18] $end
$var wire 1 a \inst1|cuenta\ [17] $end
$var wire 1 b \inst1|cuenta\ [16] $end
$var wire 1 c \inst1|cuenta\ [15] $end
$var wire 1 d \inst1|cuenta\ [14] $end
$var wire 1 e \inst1|cuenta\ [13] $end
$var wire 1 f \inst1|cuenta\ [12] $end
$var wire 1 g \inst1|cuenta\ [11] $end
$var wire 1 h \inst1|cuenta\ [10] $end
$var wire 1 i \inst1|cuenta\ [9] $end
$var wire 1 j \inst1|cuenta\ [8] $end
$var wire 1 k \inst1|cuenta\ [7] $end
$var wire 1 l \inst1|cuenta\ [6] $end
$var wire 1 m \inst1|cuenta\ [5] $end
$var wire 1 n \inst1|cuenta\ [4] $end
$var wire 1 o \inst1|cuenta\ [3] $end
$var wire 1 p \inst1|cuenta\ [2] $end
$var wire 1 q \inst1|cuenta\ [1] $end
$var wire 1 r \inst1|cuenta\ [0] $end
$var wire 1 s \ALT_INV_RESET~input_o\ $end
$upscope $end
$upscope $end
$enddefinitions $end
#0
$dumpvars
0!
0"
0#
0$
0%
0&
0'
1(
x)
1*
1+
1,
1-
1.
1/
00
01
02
03
04
05
0@
zA
zB
zC
0D
0E
0F
0G
0H
1I
1J
1K
0L
0M
1N
1O
0P
1Q
1R
0S
1T
1U
0V
1s
xW
xX
xY
xZ
x[
x\
x]
x^
x_
x`
xa
xb
xc
xd
xe
xf
xg
xh
xi
xj
xk
xl
xm
xn
xo
xp
xq
0r
06
07
08
09
0:
0;
0<
0=
0>
0?
$end
#10000
1$
12
1H
1r
0I
1M
1D
0K
0J
10
1!
#20000
0$
02
0H
#30000
1$
12
1H
0r
1I
0N
1J
#40000
0$
02
0H
#50000
1$
12
1H
1r
0I
0M
1N
0D
1P
1K
0J
00
1E
0O
0!
13
1"
#60000
0$
02
0H
#70000
1$
12
1H
0r
1I
1J
#80000
0$
02
0H
#90000
1$
12
1H
1r
0I
1M
1D
0K
0J
10
1!
#100000
0$
02
0H
#110000
1$
12
1H
0r
1I
0N
0Q
1J
#120000
0$
02
0H
#130000
1$
12
1H
1r
0I
0M
1N
1Q
0D
1S
0P
1K
0J
00
0E
1F
1O
0R
0!
03
14
0"
1#
#140000
0$
02
0H
#150000
1$
12
1H
0r
1I
1J
#160000
0$
02
0H
#170000
1$
12
1H
1r
0I
1M
1D
0K
0J
10
1!
#180000
0$
02
0H
#190000
1$
12
1H
0r
1I
0N
1J
#200000
0$
02
0H
#210000
1$
12
1H
1r
0I
0M
1N
0D
1P
1K
0J
00
1E
0O
0!
13
1"
#220000
0$
02
0H
#230000
1$
12
1H
0r
1I
1J
#240000
0$
02
0H
#250000
1$
12
1H
1r
0I
1M
1D
0K
0J
10
1!
#260000
0$
02
0H
#270000
1$
12
1H
0r
1I
0N
0Q
0T
1J
#280000
0$
02
0H
#290000
1$
12
1H
1r
0I
0M
1N
1Q
1T
0D
1V
0S
0P
1K
0J
00
0E
0F
1G
1O
1R
0U
0!
03
04
15
0"
0#
1%
#300000
0$
02
0H
#310000
1$
12
1H
0r
1I
1J
#320000
0$
02
0H
#330000
1$
12
1H
1r
0I
1M
1D
0K
0J
10
1!
#340000
0$
02
0H
#350000
1$
12
1H
0r
1I
0N
1J
#360000
0$
02
0H
#370000
1$
12
1H
1r
0I
0M
1N
0D
1P
1K
0J
00
1E
0O
0!
13
1"
#380000
0$
02
0H
#390000
1$
12
1H
0r
1I
1J
#400000
0$
02
0H
#410000
1$
12
1H
1r
0I
1M
1D
0K
0J
10
1!
#420000
0$
02
0H
#430000
1$
12
1H
0r
1I
0N
0Q
1J
#440000
0$
02
0H
#450000
1$
12
1H
1r
0I
0M
1N
1Q
0D
1S
0P
1K
0J
00
0E
1F
1O
0R
0!
03
14
0"
1#
#460000
0$
02
0H
#470000
1$
12
1H
0r
1I
1J
#480000
0$
02
0H
#490000
1$
12
1H
1r
0I
1M
1D
0K
0J
10
1!
#500000
0$
02
0H
#510000
1$
12
1H
0r
1I
0N
1J
#520000
0$
02
0H
#530000
1$
12
1H
1r
0I
0M
1N
0D
1P
1K
0J
00
1E
0O
0!
13
1"
#540000
0$
02
0H
#550000
1$
12
1H
0r
1I
1J
#560000
0$
02
0H
#570000
1$
12
1H
1r
0I
1M
1D
0K
0J
10
1!
#580000
0$
02
0H
#590000
1$
12
1H
0r
1I
0N
0Q
0T
1J
#600000
0$
02
0H
#610000
1$
12
1H
1r
0I
0M
1N
1Q
1T
0D
0V
0S
0P
1K
0J
00
0E
0F
0G
1O
1R
1U
0!
03
04
05
0"
0#
0%
#620000
0$
02
0H
#630000
1$
12
1H
0r
1I
1J
#640000
0$
02
0H
#650000
1$
12
1H
1r
0I
1M
1D
0K
0J
10
1!
#660000
0$
02
0H
#670000
1$
12
1H
0r
1I
0N
1J
#680000
0$
02
0H
#690000
1$
12
1H
1r
0I
0M
1N
0D
1P
1K
0J
00
1E
0O
0!
13
1"
#700000
0$
02
0H
#710000
1$
12
1H
0r
1I
1J
#720000
0$
02
0H
#730000
1$
12
1H
1r
0I
1M
1D
0K
0J
10
1!
#740000
0$
02
0H
#750000
1$
12
1H
0r
1I
0N
0Q
1J
#760000
0$
02
0H
#770000
1$
12
1H
1r
0I
0M
1N
1Q
0D
1S
0P
1K
0J
00
0E
1F
1O
0R
0!
03
14
0"
1#
#780000
0$
02
0H
#790000
1$
12
1H
0r
1I
1J
#800000
0$
02
0H
#810000
1$
12
1H
1r
0I
1M
1D
0K
0J
10
1!
#820000
0$
02
0H
#830000
1$
12
1H
0r
1I
0N
1J
#840000
0$
02
0H
#850000
1$
12
1H
1r
0I
0M
1N
0D
1P
1K
0J
00
1E
0O
0!
13
1"
#860000
0$
02
0H
#870000
1$
12
1H
0r
1I
1J
#880000
0$
02
0H
#890000
1$
12
1H
1r
0I
1M
1D
0K
0J
10
1!
#900000
0$
02
0H
#910000
1$
12
1H
0r
1I
0N
0Q
0T
1J
#920000
0$
02
0H
#930000
1$
12
1H
1r
0I
0M
1N
1Q
1T
0D
1V
0S
0P
1K
0J
00
0E
0F
1G
1O
1R
0U
0!
03
04
15
0"
0#
1%
#940000
0$
02
0H
#950000
1$
12
1H
0r
1I
1J
#960000
0$
02
0H
#970000
1$
12
1H
1r
0I
1M
1D
0K
0J
10
1!
#980000
0$
02
0H
#990000
1$
12
1H
0r
1I
0N
1J
