P2OAC/simulation/qsim/P2OAC.msim.vcd
$comment
	File created using the following command:
		vcd file P2OAC.msim.vcd -direction
$end
$date
	Thu Sep 07 22:17:21 2023
$end
$version
	ModelSim Version 10.5b
$end
$timescale
	1ps
$end

$scope module p2oac_vhd_vec_tst $end
$var wire 1 ! clk $end
$var wire 1 " E1 $end
$var wire 1 # E2 $end
$var wire 1 $ S1 $end
$var wire 1 % S2 $end

$scope module i1 $end
$var wire 1 & gnd $end
$var wire 1 ' vcc $end
$var wire 1 ( unknown $end
$var wire 1 ) devoe $end
$var wire 1 * devclrn $end
$var wire 1 + devpor $end
$var wire 1 , ww_devoe $end
$var wire 1 - ww_devclrn $end
$var wire 1 . ww_devpor $end
$var wire 1 / ww_clk $end
$var wire 1 0 ww_E1 $end
$var wire 1 1 ww_E2 $end
$var wire 1 2 ww_S1 $end
$var wire 1 3 ww_S2 $end
$var wire 1 4 \~QUARTUS_CREATED_ADC1~_CHSEL_bus\ [4] $end
$var wire 1 5 \~QUARTUS_CREATED_ADC1~_CHSEL_bus\ [3] $end
$var wire 1 6 \~QUARTUS_CREATED_ADC1~_CHSEL_bus\ [2] $end
$var wire 1 7 \~QUARTUS_CREATED_ADC1~_CHSEL_bus\ [1] $end
$var wire 1 8 \~QUARTUS_CREATED_ADC1~_CHSEL_bus\ [0] $end
$var wire 1 9 \~QUARTUS_CREATED_ADC2~_CHSEL_bus\ [4] $end
$var wire 1 : \~QUARTUS_CREATED_ADC2~_CHSEL_bus\ [3] $end
$var wire 1 ; \~QUARTUS_CREATED_ADC2~_CHSEL_bus\ [2] $end
$var wire 1 < \~QUARTUS_CREATED_ADC2~_CHSEL_bus\ [1] $end
$var wire 1 = \~QUARTUS_CREATED_ADC2~_CHSEL_bus\ [0] $end
$var wire 1 > \cuenta[24]~clkctrl_INCLK_bus\ [3] $end
$var wire 1 ? \cuenta[24]~clkctrl_INCLK_bus\ [2] $end
$var wire 1 @ \cuenta[24]~clkctrl_INCLK_bus\ [1] $end
$var wire 1 A \cuenta[24]~clkctrl_INCLK_bus\ [0] $end
$var wire 1 B \clk~inputclkctrl_INCLK_bus\ [3] $end
$var wire 1 C \clk~inputclkctrl_INCLK_bus\ [2] $end
$var wire 1 D \clk~inputclkctrl_INCLK_bus\ [1] $end
$var wire 1 E \clk~inputclkctrl_INCLK_bus\ [0] $end
$var wire 1 F \~QUARTUS_CREATED_GND~I_combout\ $end
$var wire 1 G \~QUARTUS_CREATED_UNVM~~busy\ $end
$var wire 1 H \~QUARTUS_CREATED_ADC1~~eoc\ $end
$var wire 1 I \~QUARTUS_CREATED_ADC2~~eoc\ $end
$var wire 1 J \S1~output_o\ $end
$var wire 1 K \S2~output_o\ $end
$var wire 1 L \clk~input_o\ $end
$var wire 1 M \clk~inputclkctrl_outclk\ $end
$var wire 1 N \cuenta[0]~25_combout\ $end
$var wire 1 O \cuenta[0]~26\ $end
$var wire 1 P \cuenta[1]~27_combout\ $end
$var wire 1 Q \cuenta[1]~28\ $end
$var wire 1 R \cuenta[2]~29_combout\ $end
$var wire 1 S \cuenta[2]~30\ $end
$var wire 1 T \cuenta[3]~31_combout\ $end
$var wire 1 U \cuenta[3]~32\ $end
$var wire 1 V \cuenta[4]~33_combout\ $end
$var wire 1 W \cuenta[4]~34\ $end
$var wire 1 X \cuenta[5]~35_combout\ $end
$var wire 1 Y \cuenta[5]~36\ $end
$var wire 1 Z \cuenta[6]~37_combout\ $end
$var wire 1 [ \cuenta[6]~38\ $end
$var wire 1 \ \cuenta[7]~39_combout\ $end
$var wire 1 ] \cuenta[7]~40\ $end
$var wire 1 ^ \cuenta[8]~41_combout\ $end
$var wire 1 _ \cuenta[8]~42\ $end
$var wire 1 ` \cuenta[9]~43_combout\ $end
$var wire 1 a \cuenta[9]~44\ $end
$var wire 1 b \cuenta[10]~45_combout\ $end
$var wire 1 c \cuenta[10]~46\ $end
$var wire 1 d \cuenta[11]~47_combout\ $end
$var wire 1 e \cuenta[11]~48\ $end
$var wire 1 f \cuenta[12]~49_combout\ $end
$var wire 1 g \cuenta[12]~50\ $end
$var wire 1 h \cuenta[13]~51_combout\ $end
$var wire 1 i \cuenta[13]~52\ $end
$var wire 1 j \cuenta[14]~53_combout\ $end
$var wire 1 k \cuenta[14]~54\ $end
$var wire 1 l \cuenta[15]~55_combout\ $end
$var wire 1 m \cuenta[15]~56\ $end
$var wire 1 n \cuenta[16]~57_combout\ $end
$var wire 1 o \cuenta[16]~58\ $end
$var wire 1 p \cuenta[17]~59_combout\ $end
$var wire 1 q \cuenta[17]~60\ $end
$var wire 1 r \cuenta[18]~61_combout\ $end
$var wire 1 s \cuenta[18]~62\ $end
$var wire 1 t \cuenta[19]~63_combout\ $end
$var wire 1 u \cuenta[19]~64\ $end
$var wire 1 v \cuenta[20]~65_combout\ $end
$var wire 1 w \cuenta[20]~66\ $end
$var wire 1 x \cuenta[21]~67_combout\ $end
$var wire 1 y \cuenta[21]~68\ $end
$var wire 1 z \cuenta[22]~69_combout\ $end
$var wire 1 { \cuenta[22]~70\ $end
$var wire 1 | \cuenta[23]~71_combout\ $end
$var wire 1 } \cuenta[23]~72\ $end
$var wire 1 ~ \cuenta[24]~73_combout\ $end
$var wire 1 !! \cuenta[24]~clkctrl_outclk\ $end
$var wire 1 "! \E1~input_o\ $end
$var wire 1 #! \E2~input_o\ $end
$var wire 1 $! \Mux1~0_combout\ $end
$var wire 1 %! \Mux0~0_combout\ $end
$var wire 1 &! cuenta [27] $end
$var wire 1 '! cuenta [26] $end
$var wire 1 (! cuenta [25] $end
$var wire 1 )! cuenta [24] $end
$var wire 1 *! cuenta [23] $end
$var wire 1 +! cuenta [22] $end
$var wire 1 ,! cuenta [21] $end
$var wire 1 -! cuenta [20] $end
$var wire 1 .! cuenta [19] $end
$var wire 1 /! cuenta [18] $end
$var wire 1 0! cuenta [17] $end
$var wire 1 1! cuenta [16] $end
$var wire 1 2! cuenta [15] $end
$var wire 1 3! cuenta [14] $end
$var wire 1 4! cuenta [13] $end
$var wire 1 5! cuenta [12] $end
$var wire 1 6! cuenta [11] $end
$var wire 1 7! cuenta [10] $end
$var wire 1 8! cuenta [9] $end
$var wire 1 9! cuenta [8] $end
$var wire 1 :! cuenta [7] $end
$var wire 1 ;! cuenta [6] $end
$var wire 1 <! cuenta [5] $end
$var wire 1 =! cuenta [4] $end
$var wire 1 >! cuenta [3] $end
$var wire 1 ?! cuenta [2] $end
$var wire 1 @! cuenta [1] $end
$var wire 1 A! cuenta [0] $end
$var wire 1 B! estado_actual [1] $end
$var wire 1 C! estado_actual [0] $end
$var wire 1 D! ALT_INV_estado_actual [0] $end
$upscope $end
$upscope $end
$enddefinitions $end
#0
$dumpvars
0!
1"
0#
0$
1%
0&
1'
x(
1)
1*
1+
1,
1-
1.
0/
10
01
02
13
0F
zG
zH
zI
0J
1K
0L
0M
1N
0O
0P
1Q
0R
0S
0T
1U
0V
0W
0X
1Y
0Z
0[
0\
1]
0^
0_
0`
1a
0b
0c
0d
1e
0f
0g
0h
1i
0j
0k
0l
1m
0n
0o
0p
1q
0r
0s
0t
1u
0v
0w
0x
1y
0z
0{
0|
1}
0~
0!!
1"!
0#!
0$!
0%!
x&!
x'!
x(!
0)!
0*!
0+!
0,!
0-!
0.!
0/!
00!
01!
02!
03!
04!
05!
06!
07!
08!
09!
0:!
0;!
0<!
0=!
0>!
0?!
0@!
0A!
0B!
0C!
1D!
1B
1C
1D
0E
1>
1?
1@
0A
04
05
06
07
08
09
0:
0;
0<
0=
$end
#50000
1!
1/
1L
1E
1M
1A!
0N
1O
1P
#100000
0!
0"
0/
00
0"!
0L
0E
1$!
0M
#150000
1!
1/
1L
1E
1M
0A!
1@!
0P
0Q
1N
0O
1P
1Q
1R
0R
#200000
0!
0/
0L
0E
0M
#250000
1!
1/
1L
1E
1M
1A!
0N
1O
0P
0Q
1R
#300000
0!
0/
0L
0E
0M
#350000
1!
1/
1L
1E
1M
0A!
0@!
1?!
0R
1S
1P
1Q
1N
0O
0P
1R
0S
1T
0T
#400000
0!
0/
0L
0E
0M
#450000
1!
1/
1L
1E
1M
1A!
0N
1O
1P
#500000
0!
0/
0L
0E
0M
#550000
1!
1/
1L
1E
1M
0A!
1@!
0P
0Q
1N
0O
1P
1Q
0R
1S
1T
1R
0S
0T
#600000
0!
0/
0L
0E
0M
#650000
1!
1/
1L
1E
1M
1A!
0N
1O
0P
0Q
0R
1S
1T
#700000
0!
0/
0L
0E
0M
#750000
1!
1/
1L
1E
1M
0A!
0@!
0?!
1>!
0T
0U
1R
0S
1P
1Q
1N
0O
0P
0R
1T
1U
1V
0V
#800000
0!
0/
0L
0E
0M
#850000
1!
1/
1L
1E
1M
1A!
0N
1O
1P
#900000
0!
0/
0L
0E
0M
#950000
1!
1/
1L
1E
1M
0A!
1@!
0P
0Q
1N
0O
1P
1Q
1R
0R
